464072 898348
750176 511339
441942 916694
588562 27928
457874 168658
165897 922621
229991 15944
566097 588734
686860 726434
222540 180372
265349 722280
239281 981959
298313 647713
618493 40991
433143 557224
669728 472576
658517 297134
992222 920356
794921 653469
536512 705660
562031 227142
698140 207948
59452 291256
617698 618263
172165 480623
247650 373735
211280 586903
268755 361265
600374 32236
595557 692949
470260 78791
690319 326951
753854 335243
884948 549458
758465 727324
702996 764235
442795 162967
385835 705855
296792 984347
713383 505745
533276 747762
385843 730931
815106 141000
547640 425102
370686 819381
920966 983299
945491 607768
172703 834500
727015 272118
516456 589164
195031 282528
306150 720749
148658 525375
584221 354330
949800 163005
976174 376927
985039 69012
275130 79911
598012 650497
223542 459395
993603 61007
963821 776721
650854 94769
657157 920974
503258 65212
388586 628766
548504 208271
886091 318609
229791 992226
216323 736171
900950 957066
593846 477941
522730 687189
680414 853347
530050 798182
907995 179861
774963 93495
889793 555619
569568 196900
162706 334059
724809 814261
832948 636938
33154 890625
337419 643902
683974 935160
688341 304198
760388 240033
236588 379498
746565 457501
52501 677974
400495 582789
217279 920341
974499 88932
102719 522632
694374 715862
712724 915778
217607 626311
942964 234675
725204 608528
575314 216223
404924 570521
369348 998872
982110 596370
200727 910315
172269 165870
129020 136735
393214 302227
91906 671647
476016 96307
362206 960405
812654 155426
568010 130494
140608 249315
304574 340064
338310 819639
59043 815382
876248 29979
735502 888970
208223 278588
905310 417062
564362 659301
105168 497448
425646 188373
955269 113096
497400 894057
376403 365430
74361 315418
580759 857192
140852 888159
495843 865775
96848 10056
544506 258109
498695 189645
896084 446354
894041 969259
534381 132590
547799 3510
508106 265171
927188 866160
386167 911370
412803 42128
820637 515183
209214 974007
115383 421154
703912 233892
169980 348301
634606 423579
408236 452390
133501 704120
55714 574733
52014 373922
232956 374611
739444 613639
901132 261272
974189 570831
647537 478376
146422 178353
274068 497431
772816 528737
600051 594167
180559 394097
265151 511716
872605 552474
362408 479792
227947 643916
953754 272701
165812 392933
110887 611956
289150 196157
788531 634601
755668 233065
5600 274958
942357 299007
521653 661483
33131 992903
992400 982342
487625 834866
902429 586596
741890 601827
767805 960059
532162 788907
298657 233266
418872 170302
70312 271809
503729 90251
868819 773617
582863 572325
55821 606825
788904 893247
310360 442949
655392 505883
873576 517
890691 825206
367319 94699
912265 937835
205152 770625
328304 397162
942889 446457
869493 831647
959097 974573
366644 909322
368322 547286
153150 892800
47851 818469
780697 748450
337647 785907
495073 980229
841758 699133
513792 696973
619093 166599
281999 204631
794548 357700
336115 658252
563926 787839
388166 484329
56047 488155
701120 2136
334739 590266
153742 410293
147217 574412
805134 460333
296831 11616
