573472 471577
211657 345470
240397 7480
572386 905030
331126 406400
388763 161995
549145 335738
532587 496595
940740 879834
950264 181748
18652 805479
163827 435233
517746 52377
397658 465845
401666 781870
126510 815681
567248 401534
60271 54044
40641 103136
956652 340942
970721 915489
214282 773017
27606 928504
532919 374764
994349 171869
295867 135741
847592 478018
538832 84297
510103 914201
548622 121133
806925 102203
886560 78643
210117 572019
550766 209998
265663 28581
214007 277472
532571 148507
247626 269304
7257 362611
478487 425693
91528 341440
738173 370738
638585 775776
720710 141969
36857 693992
24464 586387
478364 633827
81907 784873
942869 45478
296527 238838
392908 398420
248164 939953
463191 262797
3481 183340
624162 278781
506427 551160
747231 448346
291059 298689
251060 151904
892802 281958
594577 410601
368682 727437
819275 922552
899034 641536
928469 40241
587381 612360
814338 632884
177176 435299
581971 161564
664033 547823
555085 296959
347890 71181
142996 186756
379596 667411
60387 119700
133017 517905
194842 934779
438043 35155
473714 656734
179564 885693
43716 199472
991416 242557
620971 738476
16096 531453
427456 38223
423285 416957
368002 949300
495420 688940
966094 676523
647346 60679
174210 728700
963292 119046
297095 850286
425752 228038
275680 96953
277158 70451
186937 558102
311785 348711
919484 386615
272513 541768
939115 57191
619429 69907
540163 424177
23845 284702
960065 5773
349492 293742
423364 398730
75759 248104
527520 960144
469018 784955
690827 113421
784127 374504
916679 519429
806390 8618
96178 898513
211147 42627
794845 565160
378237 441596
225857 690626
256103 585314
3984 408439
936958 410183
552706 501656
237417 943592
316758 505006
424636 280205
248369 728076
901924 994776
224910 741235
11942 284214
569402 329436
414636 222571
785267 231736
775938 581698
861392 693153
854483 264408
314665 497908
374724 869080
554727 501453
39891 355341
100970 12638
927207 342556
798959 591391
770758 390114
956194 146669
330575 541034
18568 351442
955939 406113
806655 858516
63548 35150
958865 791419
764236 508625
116070 382780
840999 331507
633421 482275
193979 448345
808968 661314
502043 684423
836111 422917
297227 885754
144296 172265
184591 874911
801212 28183
95444 420206
353521 961725
509125 681678
424135 399265
293817 597996
318794 272783
707241 480355
239361 360003
905904 605983
146074 3494
568604 233253
300268 804736
664692 845742
424478 754458
610899 999588
124372 937484
300495 771719
719338 719600
66761 943858
720129 336679
327918 970897
858715 384460
500985 844739
887080 714397
770411 491526
443640 149561
713387 416833
486147 768303
953923 690753
970511 357525
82783 628614
890894 71507
513036 755257
775395 955282
758887 785408
157762 588185
758853 92919
343149 927357
240041 306965
243289 100845
62855 847742
452173 402457
188880 568055
475700 833443
715517 433615
150947 43299
713211 235867
20261 640051
500738 753030
319136 348469
907322 867337
29819 4538
630983 693006
393439 25767
66380 662356
327435 830747
915207 495502
667035 592018
394148 789189
718135 78092
414558 840405
556054 861357
264138 640896
423567 251972
717063 548185
857329 290847
499087 821000
266118 597974
479027 895960
908829 973615
676927 530374
752660 804641
782595 400148
716044 730169
852820 948752
615071 193149
276790 237424
264144 697699
255675 847585
425497 436353
948935 787352
406878 209901
60909 947529
102254 397767
237921 187792
772757 334916
590159 644945
64430 190007
268152 971241
646796 750826
177129 841635
746545 561026
