362400 886697 525
124598 7554 354
379464 540249 470
832969 394160 509
121773 968676 525
569803 111193 470
158642 634704 509
947269 184132 525
122018 183058 383
583710 272931 470
28808 430578 449
49007 920101 525
578814 700483 509
248229 33131 443
199874 9131 383
765821 585330 509
203911 541171 470
458753 505777 444
242069 885064 525
836016 187340 509
341898 709922 509
87986 78161 338
130910 395406 443
67544 738612 509
443735 975350 525
397095 737442 509
829071 674670 504
119223 554847 470
186344 82336 383
160841 961355 525
107629 199855 383
85492 354280 443
674672 838992 525
669330 662745 442
613470 955266 525
898315 518865 525
543662 778337 509
174052 702999 509
138301 984629 525
458554 911674 525
228283 334639 443
2890 574040 470
129359 93652 354
137338 903535 525
282775 415529 449
147675 263132 443
790707 924507 525
175040 63233 383
13615 139249 354
445998 696465 509
933569 632455 525
851271 251634 525
96850 803256 509
200757 333176 443
301405 57238 443
59626 91284 351
955849 676819 525
538800 855212 525
405488 364258 436
785108 297220 509
729484 426971 509
738086 449150 509
325301 922441 525
883317 924102 476
482571 889775 525
543001 54416 470
556297 386613 470
864764 123910 525
756439 183513 509
988736 898870 507
376597 463353 449
858668 774929 525
800799 883187 525
429231 4349 449
370362 652051 509
275750 121754 443
240752 284947 407
798655 79038 509
148645 801876 509
712291 869350 525
198557 86243 383
893969 936332 476
478243 797297 509
873597 267875 525
259717 932014 525
839968 865292 419
244658 796229 509
11229 838468 525
235354 558342 470
297713 782594 509
943637 41697 525
66665 878286 525
714547 366599 509
443846 947053 525
30654 707966 509
181164 405286 443
346891 244460 441
148771 951455 525
75010 915536 525
104305 416630 449
653338 815409 504
809087 543536 509
282241 810849 509
966938 869042 507
746187 22074 509
452723 146840 449
121889 58406 354
896163 575953 525
807443 588776 509
352639 567238 470
854577 282348 525
490753 664373 509
519932 994082 525
179858 478517 449
24558 405251 443
863424 955081 507
130475 889739 525
424273 686655 509
76436 920511 525
338133 619865 470
66955 634428 509
868373 102401 525
622157 993688 525
297643 318579 384
261315 502899 449
682852 222237 509
137932 85360 354
387621 505845 449
853204 137701 525
13211 928882 525
35258 243692 443
268491 147587 443
541598 160654 470
757939 463921 509
224663 244823 443
700177 269224 509
854524 451986 525
222492 107183 386
502661 102775 449
24504 936488 525
662922 498189 509
668377 930816 525
608112 917117 525
815594 193799 509
653564 362183 509
109708 542349 470
792906 263245 509
697215 990078 525
625488 41751 470
412087 322802 449
262886 234804 368
120043 204740 383
334212 391147 441
317940 944445 525
732295 324792 509
928964 287358 525
910351 198725 525
560580 999959 525
46599 225863 386
1457 472485 449
653374 518322 509
825783 130940 509
659133 435312 509
215440 483026 449
192687 459929 449
298345 3831 443
822725 577034 509
296258 290110 358
641948 984037 525
462993 556244 470
13167 286060 443
551314 75474 470
147186 902841 525
285494 38200 443
649589 853021 525
249516 907670 525
548945 599104 434
885319 107252 525
545148 811447 509
189608 299853 443
679657 159737 509
128547 210450 383
184779 458230 449
862003 563017 525
880968 134784 525
803387 504697 509
894460 551118 525
64883 766936 509
646140 179631 509
913357 565209 525
981315 598249 525
491560 231405 449
432273 141490 449
909579 516142 525
615224 462707 470
340570 730009 509
575160 678112 509
691510 160547 509
37410 319337 443
332656 21528 443
997575 906426 507
378463 116636 443
369361 336591 441
651935 701444 442
805516 661488 504
148073 218986 386
771448 608119 509
667212 340647 509
746028 379232 509
669053 851646 525
424466 882932 525
246723 755608 509
595177 19622 470
679414 397081 509
944562 16210 525
585854 694904 509
39798 894493 525
653704 225130 509
810956 139001 509
257875 324818 407
75244 588409 470
104463 251961 443
72710 787913 509
235821 90777 443
732986 559429 509
858962 702601 525
312805 79573 443
828667 70350 509
780797 657525 504
733169 55025 509
154351 143371 370
215978 826246 509
539563 679247 509
417715 935525 525
321638 711041 509
636482 385168 509
453004 292309 449
856881 220688 525
453864 302127 449
439066 983864 525
923697 89819 525
925680 539004 525
933892 846756 476
608187 712537 509
593314 373271 470
268415 722108 509
268869 72345 443
44889 174097 383
240764 739830 509
676899 216978 509
857873 450216 525
776972 717944 468
670384 8658 509
275724 329325 389
319211 361549 441
689092 309798 509
213392 796143 509
881169 578216 525
530258 407755 470
492916 522565 470
865739 631367 525
591535 817831 509
112441 543411 470
745870 786564 468
757881 330514 509
118554 961422 525
678214 351668 509
846532 186923 525
566401 390266 470
279818 402456 441
427838 291433 449
527659 226491 470
526599 459644 470
684702 594519 509
48358 725916 509
