880835 984019
745581 154512
929254 893411
899522 671705
897971 331052
947998 866290
450281 394800
775204 766628
929037 386567
741601 215474
388904 758198
399435 274668
687138 150916
303518 90479
480709 326852
69948 18880
340928 386695
838949 228034
646260 876826
105598 660182
580917 829539
511087 708062
653529 225550
217065 658452
956666 108750
585372 229447
102758 146179
554321 738947
676069 872905
829554 246649
479196 914071
109408 781754
140011 176239
297917 19729
998446 40992
884177 653895
819072 601353
981624 101072
161837 571450
736765 623659
808933 632130
507652 166765
568493 745698
16119 934423
690581 99741
459118 779360
587687 545067
601446 626183
963885 461716
512349 90901
518713 730663
447112 107668
461514 161699
522413 254493
50378 187175
140859 652175
594366 700154
214012 230913
235054 722739
831872 125205
861045 907814
250480 627451
617285 709239
833528 628789
608645 865236
856546 160791
414639 903079
120856 8082
40953 979025
669725 193190
357171 406734
333553 622460
154904 2007
197552 425281
512340 694476
739298 984849
104007 745188
183298 914992
228591 903609
480975 407173
797180 790168
945744 837731
218687 387285
899543 165845
162148 370032
175500 23600
951424 723381
363989 713483
261596 739271
179673 55957
234705 516646
773768 100971
933914 169133
508099 768290
174133 177037
725306 619206
761714 832596
857811 301161
170967 876341
82537 112284
572631 772481
811995 290392
780929 931102
473876 894731
351928 385510
437390 354264
749404 639159
684398 641707
99826 616674
797145 129171
823502 229642
253584 674855
498739 929761
202533 791900
271499 450199
243530 923161
844248 410879
327527 315204
74256 891598
251397 382691
324951 16214
135377 750789
416589 5810
115882 614447
620407 943515
226014 918584
85863 638620
331069 449741
149315 804171
850155 692824
401294 237976
529167 944062
577620 612104
610709 564020
201006 408848
874089 100678
125325 408911
26520 945766
416804 201
747329 750725
367230 457828
518985 535034
248263 73177
39047 769195
243038 784301
514172 603106
664289 827810
147713 14091
210223 673578
621024 252155
348781 315285
254318 90012
214540 701425
323737 378407
640463 418590
76514 307609
946282 572418
338076 616503
58914 809523
243225 847940
732791 527623
151943 924888
517485 387171
72489 326045
243244 138709
623580 528403
496352 460093
710212 926978
793330 853374
504746 11289
627140 714790
188835 832539
897009 408746
639759 255215
132940 620523
747925 268923
183431 148143
209144 705112
726948 101112
968517 146139
737578 651177
151924 889409
19643 82659
382772 602862
981120 256863
790499 576645
596099 179275
599673 331957
897274 917693
399145 801006
725484 376586
471568 737175
900280 191130
240582 553339
446126 465581
958754 817243
381612 429420
73190 708648
503363 935146
813990 442869
130084 242638
107749 36862
413143 889660
358704 628890
463503 876885
698758 777943
81004 878167
818180 891828
295395 604781
552057 225656
536775 381544
128530 298563
102300 12775
137750 526516
905770 120279
278675 868425
896772 379232
601860 694165
491536 532798
756599 989401
928928 80802
741084 277194
73862 992493
630131 718083
62253 148857
925397 602695
704956 515245
